Chapter 3 Homework Assignment (solutions)
…
Okay, one final thing before we go. This chapter also discussed an interesting phenomenon, called Zipfs Law. The law states that the relative frequency of a word within a document is typically proportional to the rank of that word (by frequency). Lets explore Zipfs Law and several works of Shakespeare.

In Project Gutenberg many of Shakespeares plays are consecutively numbered, beginning with 2235 and extending through 2270. Lets pull the works 2242 through 2258 and work with those. While we are at it, lets join the title information onto the text data frame.

some_shakespeare_plays <- gutenberg_download(seq(2242, 2258, by = 1), mirror = "http://mirrors.xmission.com/gutenberg/")

some_shakespeare_plays <- some_shakespeare_plays %>%
  left_join((gutenberg_metadata %>% select(gutenberg_id, title)))

## Joining, by = "gutenberg_id"

some_shakespeare_plays

## # A tibble: 65,911 x 3
##    gutenberg_id text                                          title             
##           <int> <chr>                                         <chr>             
##  1         2242 "Executive Director's Notes:"                 A Midsummer Night~
##  2         2242 ""                                            A Midsummer Night~
##  3         2242 "In addition to the notes below, and so you ~ A Midsummer Night~
##  4         2242 "the spelling errors introduced by the print~ A Midsummer Night~
##  5         2242 "been corrected, here are the first few line~ A Midsummer Night~
##  6         2242 "are presented herein:"                       A Midsummer Night~
##  7         2242 ""                                            A Midsummer Night~
##  8         2242 "  Barnardo. Who's there?"                    A Midsummer Night~
##  9         2242 "  Fran. Nay answer me: Stand & vnfold"       A Midsummer Night~
## 10         2242 "your selfe"                                  A Midsummer Night~
## # ... with 65,901 more rows
…
