Chapter 2 Homework Assignment
…
Chapter 2 Homework Assignment

Note: We wrote two assignments for this week. This assignment continues using texts from the Project Gutenberg library, however the second assignment is a tutorial for conducting sentiment analyses on recent tweets. Both assignments focus on sentiment analysis, but the text we analyse is quite different across the assignments  you should feel free to do both assignments, or to just choose one. In order to access the Twitter Search API (required for the twitter sentiment tutorial), youll either need an existing Twitter account or to create one. If you are opposed to creating a Twitter account, please feel free to skip that assignment.

This homework assignment is intended as an opportunity to practice sentiment analysis, as introduced in Chapter 2 of Text Mining with R, A Tidy Approach. Well explore texts written by two very different authors (Charles Dickens and Edgar Rice Burroughs) in the Project Gutenberg library of texts.

In order to complete this assignment youll need to load the following libraries into an R Markdown document or an R Script: gutenbergr, tidyverse, tidytext, reshape2, and wordcloud.

Recall from the Chapter 1 Homework assignment that we can filter the gutenberg_metadata data frame to consider only our author(s) of interest and then select the gutenberg_id and title columns to see what book ids we will need. Use the technique we saw there to identify the works of both Dickens, Charles and Burroughs, Edgar Rice.

gutenberg_metadata %>%
  filter(str_detect(author, "Burroughs, Edgar Rice")) %>%
  select(gutenberg_id, author, title)

## # A tibble: 57 x 3
##    gutenberg_id author                title                        
##           <int> <chr>                 <chr>                        
##  1           62 Burroughs, Edgar Rice A Princess of Mars           
##  2           64 Burroughs, Edgar Rice The Gods of Mars             
##  3           68 Burroughs, Edgar Rice Warlord of Mars              
##  4           72 Burroughs, Edgar Rice Thuvia, Maid of Mars         
##  5           78 Burroughs, Edgar Rice Tarzan of the Apes           
##  6           81 Burroughs, Edgar Rice The Return of Tarzan         
##  7           85 Burroughs, Edgar Rice The Beasts of Tarzan         
##  8           90 Burroughs, Edgar Rice The Son of Tarzan            
##  9           92 Burroughs, Edgar Rice Tarzan and the Jewels of Opar
## 10           96 Burroughs, Edgar Rice The Monster Men              
## # ... with 47 more rows

gutenberg_metadata %>%
  filter(str_detect(author, "Dickens, Charles")) %>%
  select(gutenberg_id, title)

## # A tibble: 164 x 2
##    gutenberg_id title                                                           
##           <int> <chr>                                                           
##  1           46 "A Christmas Carol in Prose; Being a Ghost Story of Christmas"  
##  2           98 "A Tale of Two Cities"                                          
##  3          564 "The Mystery of Edwin Drood"                                    
##  4          580 "The Pickwick Papers"                                           
##  5          588 "Master Humphrey's Clock"                                       
##  6          644 "The Haunted Man and the Ghost's Bargain"                       
##  7          650 "Pictures from Italy"                                           
##  8          653 "The Chimes\r\nA Goblin Story of Some Bells That Rang an Old Ye~
##  9          675 "American Notes"                                                
## 10          676 "The Battle of Life"                                            
## # ... with 154 more rows
…
tidy_barsoom <- burroughs_barsoom_novels %>%
  group_by(gutenberg_id) %>%
  mutate(linenumber = row_number(), 
         chapter = cumsum(str_detect(text, 
                                     regex("^chapter [\\divxlc]", 
                                           ignore_case = TRUE)))) %>%
  ungroup() %>%
  unnest_tokens(word, text)

tidy_dickens

## # A tibble: 3,879,523 x 4
##    gutenberg_id linenumber chapter word  
##           <int>      <int>   <int> <chr> 
##  1           98          1       0 a     
##  2           98          1       0 tale  
##  3           98          1       0 of    
##  4           98          1       0 two   
##  5           98          1       0 cities
##  6           98          3       0 a     
##  7           98          3       0 story 
##  8           98          3       0 of    
##  9           98          3       0 the   
## 10           98          3       0 french
## # ... with 3,879,513 more rows

tidy_barsoom

## # A tibble: 345,393 x 4
##    gutenberg_id linenumber chapter word        
##           <int>      <int>   <int> <chr>       
##  1           62          1       0 frontispiece
##  2           62          1       0 with        
##  3           62          1       0 my          
##  4           62          1       0 back        
##  5           62          1       0 against     
##  6           62          1       0 a           
##  7           62          1       0 golden      
##  8           62          1       0 throne      
##  9           62          1       0 i           
## 10           62          1       0 fought      
## # ... with 345,383 more rows
…
Well do some analysis on each book next. Currently our data frames list the numeric gutenberg_id but not a book title  lets join book title onto our tidy data frames. The code below may be new to you  a left_join() is similar to an inner join in that we are combining information from two tables. The difference here is that with a left_join() we start with the table on the left, and add information coming from the table on the right wherever matches exist (here, were gutenberg_ids match)  with an inner_join(), if no match was found, the corresponding row in the initial table would be dropped from the resulting data frame. Also, notice that we arent joining all of the information from the gutenberg_metadata data frame  we are only including the gutenberg_id column (to make the matches) and the title column (the information we wanted to add). Ask any questions you have on Slack!

tidy_barsoom <- tidy_barsoom %>%
  left_join(gutenberg_metadata %>% select(gutenberg_id, title))

tidy_dickens <- tidy_dickens %>%
  left_join(gutenberg_metadata %>% select(gutenberg_id, title))

tidy_barsoom

## # A tibble: 345,393 x 5
##    gutenberg_id linenumber chapter word         title             
##           <int>      <int>   <int> <chr>        <chr>             
##  1           62          1       0 frontispiece A Princess of Mars
##  2           62          1       0 with         A Princess of Mars
##  3           62          1       0 my           A Princess of Mars
##  4           62          1       0 back         A Princess of Mars
##  5           62          1       0 against      A Princess of Mars
##  6           62          1       0 a            A Princess of Mars
##  7           62          1       0 golden       A Princess of Mars
##  8           62          1       0 throne       A Princess of Mars
##  9           62          1       0 i            A Princess of Mars
## 10           62          1       0 fought       A Princess of Mars
## # ... with 345,383 more rows
…
