Data Visualization using ggplot()
…
Data Visualization and the Grammar of Graphics

Data visualization is an extremely important part of any analysis. As a researcher or analyst, data visualization will likely bookend your work, serving as a reservoir for idea and hypothesis generation at the beginning of a project as well as becoming a vehicle for conveying important takeaways as you summarize and disseminate your results upon completion.

In R, we have access to an extremely popular an easy-to-use plotting library, called ggplot2. The main philosophy behind ggplot2 is that data visualization should follow a layered grammar of graphics. The grammar of graphics is a notion first introduced by Leland Wilkinson in 2006, and the layering functionality is a convenient implementation in ggplot2.

The Anatomy of ggplot()

In this introduction to data visualization, we will be using ggplot2, which is part of the tidyverse package. To begin, we will use a pipe to feed a dataset into ggplot(). As a sandbox, we will use the penguins dataset, which is part of the palmerpenguins library. Dont forget to run install.packages("palmerpenguins") if you have not installed this package before. The penguins dataset contains measurements from different types of penguins that were collected by Gorman, Williams, and Fraser in 2014:

library(palmerpenguins)
penguins

## # A tibble: 344 x 8
##    species island    bill_length_mm bill_depth_mm flipper_length_mm body_mass_g
##    <fct>   <fct>              <dbl>         <dbl>             <int>       <int>
##  1 Adelie  Torgersen           39.1          18.7               181        3750
##  2 Adelie  Torgersen           39.5          17.4               186        3800
##  3 Adelie  Torgersen           40.3          18                 195        3250
##  4 Adelie  Torgersen           NA            NA                  NA          NA
##  5 Adelie  Torgersen           36.7          19.3               193        3450
##  6 Adelie  Torgersen           39.3          20.6               190        3650
##  7 Adelie  Torgersen           38.9          17.8               181        3625
##  8 Adelie  Torgersen           39.2          19.6               195        4675
##  9 Adelie  Torgersen           34.1          18.1               193        3475
## 10 Adelie  Torgersen           42            20.2               190        4250
## #  with 334 more rows, and 2 more variables: sex <fct>, year <int>
…
